{
  "project_info": {
    "project_number": "529622538943",
    "project_id": "firebase-guitarchord"
  },
  "client": [
    {
      "client_info": {
        "mobilesdk_app_id": "1:529622538943:android:2e6e428e38771434",
        "android_client_info": {
          "package_name": "com.kabigon.guitarchord"
        }
      },
      "oauth_client": [],
      "api_key": [
        {
          "current_key": "AIzaSyASxKILwyqskt-qyy0a0PvPycTvMpSXnL8"
        }
      ],
      "services": {
        "analytics_service": {
          "status": 2,
          "analytics_property": {
            "tracking_id": "UA-68870820-3"
          }
        },
        "appinvite_service": {
          "status": 1,
          "other_platform_oauth_client": []
        },
        "ads_service": {
          "status": 1
        }
      }
    }
  ],
  "configuration_version": "1"
}